IGT Analyses
…
# Check outliers

abdecks_outliers <- df_igt_bad_long %>%
  group_by(age_group, advice_condition, deck, block) %>%
  identify_outliers(proportion_selected)

abdecks_outliers

## # A tibble: 41 x 42
##    age_group advice_condition deck  block  id    gender   age marital_status   
##    <fct>     <fct>            <fct> <fct>  <fct> <fct>  <dbl> <chr>            
##  1 Young     None             decka block1 240   Female    39 Married          
##  2 Young     None             decka block2 213   Female    20 Single           
##  3 Young     None             decka block2 264   Female    19 In a relationship
##  4 Young     None             decka block4 240   Female    39 Married          
##  5 Young     None             decka block5 228   Female    23 In a relationship
##  6 Young     None             deckb block2 264   Female    19 In a relationship
##  7 Young     None             deckb block5 219   Female    19 Single           
##  8 Young     A                decka block1 205   Female    33 In a relationship
##  9 Young     A                decka block1 238   Male      18 Single           
## 10 Young     A                decka block1 244   Male      18 Single           
## # ... with 31 more rows, and 34 more variables: education <dbl>,
## #   current_health_rating <dbl>, own_decision_or_from_others <chr>,
## #   dig_span_f <dbl>, dig_span_b <dbl>, matrices <dbl>, stress_score <dbl>,
## #   anxiety_score <dbl>, depression_score <dbl>, advice_condition_1 <fct>,
## #   deck_a <dbl>, deck_b <dbl>, deck_c <dbl>, deck_d <dbl>,
## #   avg_bad_low_a <dbl>, avg_bad_high_b <dbl>, avg_good_low_c <dbl>,
## #   avg_good_high_d <dbl>, avg_prop_good <dbl>, gain_avg_response <dbl>, ...

#12 extreme outliers

# Shapiro Wilks test

df_igt_bad_long %>%
  group_by(age_group, advice_condition, deck, block) %>%
  shapiro_test(proportion_selected) 

## # A tibble: 60 x 7
##    age_group advice_condition deck  block  variable            statistic       p
##    <fct>     <fct>            <fct> <fct>  <chr>                   <dbl>   <dbl>
##  1 Young     None             decka block1 proportion_selected     0.701 3.99e-5
##  2 Young     None             decka block2 proportion_selected     0.837 3.21e-3
##  3 Young     None             decka block3 proportion_selected     0.935 1.94e-1
##  4 Young     None             decka block4 proportion_selected     0.828 2.30e-3
##  5 Young     None             decka block5 proportion_selected     0.813 1.34e-3
##  6 Young     None             deckb block1 proportion_selected     0.970 7.54e-1
##  7 Young     None             deckb block2 proportion_selected     0.929 1.47e-1
##  8 Young     None             deckb block3 proportion_selected     0.953 4.19e-1
##  9 Young     None             deckb block4 proportion_selected     0.954 4.39e-1
## 10 Young     None             deckb block5 proportion_selected     0.954 4.31e-1
## # ... with 50 more rows
…
# Set factors

df_losses$id <- as.factor(df_losses$id)

df_losses$age_group <- factor(df_losses$age_group, levels = c("Young", "Older"))

df_losses$advice <- factor(df_losses$advice, levels = c("no_advice", "advice_A", "advice_B"))

df_losses$deck <- factor(df_losses$deck, levels = c("A", "B"))

# Spot check info is all in the correct columns

structure(df_losses)

## # A tibble: 201 x 7
##    id    age_group gender condition advice    deck  avg_change
##    <fct> <fct>     <chr>  <chr>     <fct>     <fct>      <dbl>
##  1 201   Young     Male   None      no_advice A          113. 
##  2 203   Young     Female Bad       advice_B  A          106. 
##  3 205   Young     Female Bad       advice_A  A          101. 
##  4 206   Young     Female Bad       advice_B  A          105. 
##  5 207   Young     Male   None      no_advice A           86.0
##  6 208   Young     Female Bad       advice_A  A           70.3
##  7 210   Young     Female None      no_advice A           93.9
##  8 211   Young     Female Bad       advice_A  A          108. 
##  9 212   Young     Female Bad       advice_B  A          103. 
## 10 213   Young     Female None      no_advice A          109. 
## # ... with 191 more rows
…
older_df2 <- older_df1 %>% 
  rowwise() %>% 
  mutate(decka = (mean(c_across(decka_block1:decka_block5), na.rm=T)),
       deckb = (mean(c_across(deckb_block1:deckb_block5), na.rm=T)))

### Young adults correlations ###

# Select variables for young adults

young_df2 <- select(young_df2, "education", "dig_span_f", "dig_span_b", "matrices", "stress_score", 
                    "anxiety_score", "depression_score", "decka", "deckb")

structure(young_df2)

## # A tibble: 59 x 9
## # Rowwise: 
##    education dig_span_f dig_span_b matrices stress_score anxiety_score
##        <dbl>      <dbl>      <dbl>    <dbl>        <dbl>         <dbl>
##  1        12          7          7       21            4             6
##  2        20         13         10       22           10             4
##  3        15         13          7       24           10             0
##  4        13          9          5       10            4             6
##  5        13         12         10       22           20            12
##  6        13          8          3       19            6             6
##  7        17          8          3       21           16             8
##  8        13          7          3       15           20             6
##  9        14         13          7       23           22            16
## 10        13          9          6       23            8             6
## # ... with 49 more rows, and 3 more variables: depression_score <dbl>,
## #   decka <dbl>, deckb <dbl>
…
### Older adults correlations ###

# Select variables for older adults

older_df2 <- select(older_df2, "education", "dig_span_f", "dig_span_b", "matrices", "stress_score", 
                    "anxiety_score", "depression_score", "decka", "deckb")

structure(older_df2)

## # A tibble: 54 x 9
## # Rowwise: 
##    education dig_span_f dig_span_b matrices stress_score anxiety_score
##        <dbl>      <dbl>      <dbl>    <dbl>        <dbl>         <dbl>
##  1        15         11         11       19            8            10
##  2        10          9          6       17            0             0
##  3        13         13          6       21            0             0
##  4         9          7          6       15            2             2
##  5        11         15          6       20            2             2
##  6        13         15          6       24            8             2
##  7        17          8          7       19            6             2
##  8        NA         10          8       18           10             2
##  9        NA         10          7       13           18            16
## 10        16          8          5        9            8             2
## # ... with 44 more rows, and 3 more variables: depression_score <dbl>,
## #   decka <dbl>, deckb <dbl>
…
